<svg id="Group_322" data-name="Group 322" xmlns="http://www.w3.org/2000/svg" width="11.405" height="11.405" viewBox="0 0 11.405 11.405">
  <rect id="Rectangle_729" data-name="Rectangle 729" width="11.405" height="11.405" rx="5.702" fill="#2ecc71"/>
  <g id="Group_548" data-name="Group 548" transform="translate(3.135 2.297)">
    <path id="Path_573" data-name="Path 573" d="M5.387,4.171a.322.322,0,0,0-.456,0l-2.9,2.8L.55,5.483a.322.322,0,0,0-.456.456L1.806,7.651a.322.322,0,0,0,.456,0L5.387,4.627A.322.322,0,0,0,5.387,4.171Z" transform="translate(0 -2.125)" fill="#fff"/>
  </g>
</svg>
