<svg xmlns="http://www.w3.org/2000/svg" xmlns:xlink="http://www.w3.org/1999/xlink" width="20" height="20" viewBox="0 0 20 20">
  <defs>
    <clipPath id="clip-path">
      <rect id="Rectangle_750" data-name="Rectangle 750" width="20" height="20" fill="#fff" stroke="#707070" stroke-width="1"/>
    </clipPath>
    <clipPath id="clip-path-2">
      <rect id="Rectangle_712" data-name="Rectangle 712" width="20" height="20" transform="translate(0.626)" fill="#fff" stroke="#707070" stroke-width="1.25"/>
    </clipPath>
    <clipPath id="clip-path-3">
      <rect id="Rectangle_727" data-name="Rectangle 727" width="16" height="16" transform="translate(373.334 453.334)" fill="#fff" stroke="#707070" stroke-width="0.666"/>
    </clipPath>
  </defs>
  <g id="Mask_Group_72" data-name="Mask Group 72" clip-path="url(#clip-path)">
    <g id="Перебронирование" transform="translate(-0.626)" clip-path="url(#clip-path-2)">
      <g id="переброниривание_с_доплатой" data-name="переброниривание с доплатой" transform="translate(-372.707 -450)">
        <g id="перебронирование-2" data-name="перебронирование" clip-path="url(#clip-path-3)">
          <g id="refresh-button_1_" data-name="refresh-button (1)" transform="translate(373.334 453.334)">
            <g id="loop">
              <path id="Path_496" data-name="Path 496" d="M8,2.183V0L5.091,2.909,8,5.817V3.636A4.375,4.375,0,0,1,12.364,8a4.682,4.682,0,0,1-.509,2.036l1.091,1.091A6.5,6.5,0,0,0,13.821,8,5.835,5.835,0,0,0,8,2.182ZM8,12.365A4.375,4.375,0,0,1,3.636,8a4.683,4.683,0,0,1,.509-2.036L3.055,4.875A6.5,6.5,0,0,0,2.18,8,5.835,5.835,0,0,0,8,13.818V16l2.909-2.909L8,10.182Z" fill="#9eacc4"/>
            </g>
          </g>
        </g>
      </g>
    </g>
  </g>
</svg>
