<svg xmlns="http://www.w3.org/2000/svg" xmlns:xlink="http://www.w3.org/1999/xlink" width="20" height="20" viewBox="0 0 20 20">
  <defs>
    <clipPath id="clip-path">
      <rect id="Rectangle_750" data-name="Rectangle 750" width="20" height="20" fill="#fff" stroke="#707070" stroke-width="1"/>
    </clipPath>
    <clipPath id="clip-path-2">
      <rect id="Rectangle_712" data-name="Rectangle 712" width="20" height="20" transform="translate(0.626)" fill="#fff" stroke="#707070" stroke-width="1.25"/>
    </clipPath>
    <clipPath id="clip-path-3">
      <rect id="Rectangle_728" data-name="Rectangle 728" width="16" height="16" fill="#fff" stroke="#707070" stroke-width="0.666"/>
    </clipPath>
  </defs>
  <g id="Mask_Group_73" data-name="Mask Group 73" clip-path="url(#clip-path)">
    <g id="Возврат" transform="translate(-0.626)" clip-path="url(#clip-path-2)">
      <g id="Возврат_невозможен" data-name="Возврат невозможен" transform="translate(-394.04 -450)">
        <g id="возврат-2" data-name="возврат" transform="translate(394.666 469.334) rotate(-90)" clip-path="url(#clip-path-3)">
          <g id="refresh-button_1_" data-name="refresh-button (1)" transform="translate(5.091)">
            <g id="loop">
              <path id="Path_497" data-name="Path 497" d="M2.909,2.183V0L0,2.909,2.909,5.817V3.636A4.375,4.375,0,0,1,7.273,8a4.682,4.682,0,0,1-.509,2.036l1.091,1.091A6.5,6.5,0,0,0,8.73,8a5.835,5.835,0,0,0-5.821-5.82Z" fill="#9eacc4"/>
            </g>
          </g>
          <g id="refresh-button_1_2" data-name="refresh-button (1)" transform="matrix(0.588, -0.809, 0.809, 0.588, 1.891, 11.171)">
            <g id="loop-2" data-name="loop">
              <path id="Path_496" data-name="Path 496" d="M5.819,7.491A4.375,4.375,0,0,1,1.455,3.125a4.682,4.682,0,0,1,.509-2.034L.875,0A6.5,6.5,0,0,0,0,3.125,5.836,5.836,0,0,0,5.819,8.946Z" transform="translate(0 0.91) rotate(-9)" fill="#9eacc4"/>
            </g>
          </g>
        </g>
      </g>
    </g>
  </g>
</svg>
