<svg xmlns="http://www.w3.org/2000/svg" width="80" height="80" viewBox="0 0 80 80">
  <g id="Group_577" data-name="Group 577" transform="translate(-237 -151)">
    <g id="Ellipse_43" data-name="Ellipse 43" transform="translate(237 151)" fill="#e2e2e2" stroke="#e2e2e2" stroke-width="1">
      <circle cx="40" cy="40" r="40" stroke="none"/>
      <circle cx="40" cy="40" r="39.5" fill="none"/>
    </g>
    <g id="Intersection_1" data-name="Intersection 1" transform="translate(-2446 151)" fill="#fff">
      <path d="M 2722.99951171875 79.50009918212891 C 2719.515380859375 79.50009918212891 2716.05908203125 79.0462646484375 2712.726806640625 78.15120697021484 C 2709.494384765625 77.28305816650391 2706.3779296875 76.00041198730469 2703.4638671875 74.33887481689453 C 2697.8623046875 71.14499664306641 2693.088134765625 66.58940124511719 2689.630126953125 61.14460754394531 C 2699.60595703125 54.83335876464844 2711.132568359375 51.50029754638672 2722.99951171875 51.50029754638672 C 2734.86669921875 51.50029754638672 2746.3935546875 54.83343505859375 2756.36962890625 61.14481735229492 C 2752.91162109375 66.58961486816406 2748.137451171875 71.14516448974609 2742.535888671875 74.33898162841797 C 2739.62158203125 76.00048065185547 2736.505126953125 77.28311157226562 2733.272705078125 78.15123748779297 C 2729.940185546875 79.04627990722656 2726.48388671875 79.50009918212891 2722.99951171875 79.50009918212891 Z" stroke="none"/>
      <path d="M 2722.99951171875 52.00030517578125 C 2711.396484375 52.00030517578125 2700.12158203125 55.21235656738281 2690.32470703125 61.29936218261719 C 2693.71533203125 66.48891448974609 2698.325927734375 70.83383178710938 2703.711669921875 73.90451812744141 C 2706.588623046875 75.544921875 2709.665283203125 76.81123352050781 2712.8564453125 77.66831970214844 C 2716.146484375 78.55203247070312 2719.55908203125 79.00009918212891 2722.99951171875 79.00009918212891 C 2726.43994140625 79.00009918212891 2729.852783203125 78.55204010009766 2733.14306640625 77.66835021972656 C 2736.334228515625 76.81128692626953 2739.4111328125 75.54498291015625 2742.2880859375 73.90461730957031 C 2747.673828125 70.83399963378906 2752.284423828125 66.48912048339844 2755.675048828125 61.29956817626953 C 2745.878173828125 55.21244049072266 2734.602783203125 52.00030517578125 2722.99951171875 52.00030517578125 M 2722.99951171875 51.00030517578125 C 2735.546142578125 51.00030517578125 2747.23681640625 54.66845703125 2757.056396484375 60.99005126953125 C 2750.010498046875 72.39874267578125 2737.393310546875 80.00009918212891 2722.99951171875 80.00009918212891 C 2708.6064453125 80.00009918212891 2695.9892578125 72.39853668212891 2688.943359375 60.98983764648438 C 2698.762939453125 54.66823577880859 2710.453369140625 51.00030517578125 2722.99951171875 51.00030517578125 Z" stroke="none" fill="#e2e2e2"/>
    </g>
    <circle id="Ellipse_47" data-name="Ellipse 47" cx="15.5" cy="15.5" r="15.5" transform="translate(262 165)" fill="#fff"/>
  </g>
</svg>
