<svg width="22" height="22" viewBox="0 0 22 22" fill="none" xmlns="http://www.w3.org/2000/svg">
<path fill-rule="evenodd" clip-rule="evenodd" d="M7.7751 2.52085C7.7751 2.02379 7.37215 1.62085 6.8751 1.62085C6.37804 1.62085 5.9751 2.02379 5.9751 2.52085V3.68337H5.7501C3.59619 3.68337 1.8501 5.42946 1.8501 7.58337V16.25C1.8501 18.4039 3.59619 20.15 5.7501 20.15H16.2501C18.404 20.15 20.1501 18.4039 20.1501 16.25V7.58337C20.1501 5.42946 18.404 3.68337 16.2501 3.68337H16.0251V2.52085C16.0251 2.02379 15.6222 1.62085 15.1251 1.62085C14.628 1.62085 14.2251 2.02379 14.2251 2.52085V3.68337H7.7751V2.52085ZM3.6501 16.25V8.25004H18.3501V16.25C18.3501 17.4098 17.4099 18.35 16.2501 18.35H5.7501C4.5903 18.35 3.6501 17.4098 3.6501 16.25ZM6.1876 9.64168C5.69054 9.64168 5.2876 10.0446 5.2876 10.5417C5.2876 11.0387 5.69054 11.4417 6.1876 11.4417H7.5626C8.05965 11.4417 8.4626 11.0387 8.4626 10.5417C8.4626 10.0446 8.05965 9.64168 7.5626 9.64168H6.1876ZM10.3126 9.64168C9.81554 9.64168 9.4126 10.0446 9.4126 10.5417C9.4126 11.0387 9.81554 11.4417 10.3126 11.4417H11.6876C12.1847 11.4417 12.5876 11.0387 12.5876 10.5417C12.5876 10.0446 12.1847 9.64168 11.6876 9.64168H10.3126ZM14.4376 9.64168C13.9405 9.64168 13.5376 10.0446 13.5376 10.5417C13.5376 11.0387 13.9405 11.4417 14.4376 11.4417H15.8126C16.3097 11.4417 16.7126 11.0387 16.7126 10.5417C16.7126 10.0446 16.3097 9.64168 15.8126 9.64168H14.4376ZM6.1876 12.3917C5.69054 12.3917 5.2876 12.7946 5.2876 13.2917C5.2876 13.7887 5.69054 14.1917 6.1876 14.1917H7.5626C8.05965 14.1917 8.4626 13.7887 8.4626 13.2917C8.4626 12.7946 8.05965 12.3917 7.5626 12.3917H6.1876ZM10.3126 12.3917C9.81554 12.3917 9.4126 12.7946 9.4126 13.2917C9.4126 13.7887 9.81554 14.1917 10.3126 14.1917H11.6876C12.1847 14.1917 12.5876 13.7887 12.5876 13.2917C12.5876 12.7946 12.1847 12.3917 11.6876 12.3917H10.3126ZM14.4376 12.3917C13.9405 12.3917 13.5376 12.7946 13.5376 13.2917C13.5376 13.7887 13.9405 14.1917 14.4376 14.1917H15.8126C16.3097 14.1917 16.7126 13.7887 16.7126 13.2917C16.7126 12.7946 16.3097 12.3917 15.8126 12.3917H14.4376ZM6.1876 15.1417C5.69054 15.1417 5.2876 15.5446 5.2876 16.0417C5.2876 16.5387 5.69054 16.9417 6.1876 16.9417H7.5626C8.05965 16.9417 8.4626 16.5387 8.4626 16.0417C8.4626 15.5446 8.05965 15.1417 7.5626 15.1417H6.1876ZM10.3126 15.1417C9.81554 15.1417 9.4126 15.5446 9.4126 16.0417C9.4126 16.5387 9.81554 16.9417 10.3126 16.9417H11.6876C12.1847 16.9417 12.5876 16.5387 12.5876 16.0417C12.5876 15.5446 12.1847 15.1417 11.6876 15.1417H10.3126ZM14.4376 15.1417C13.9405 15.1417 13.5376 15.5446 13.5376 16.0417C13.5376 16.5387 13.9405 16.9417 14.4376 16.9417H15.8126C16.3097 16.9417 16.7126 16.5387 16.7126 16.0417C16.7126 15.5446 16.3097 15.1417 15.8126 15.1417H14.4376Z" fill="#262F56" fill-opacity="0.15"/>
</svg>
