<?xml version="1.0" encoding="UTF-8"?>
<svg width="16px" height="16px" viewBox="0 0 16 16" version="1.1" xmlns="http://www.w3.org/2000/svg" xmlns:xlink="http://www.w3.org/1999/xlink">
    <!-- Generator: Sketch 47.1 (45422) - http://www.bohemiancoding.com/sketch -->
    <title>check act</title>
    <desc>Created with Sketch.</desc>
    <defs></defs>
    <g id="Symbols" stroke="none" stroke-width="1" fill="none" fill-rule="evenodd">
        <g id="check-act">
            <g id="Group-12">
                <rect id="Rectangle-10" stroke="#1976D2" x="0.5" y="0.5" width="15" height="15" rx="3"></rect>
                <g id="confirm" transform="translate(2.000000, 4.000000)" fill-rule="nonzero" fill="#1976D2">
                    <path d="M11.808,0.59702439 L11.4149268,0.20395122 C11.2914146,0.0803414634 11.1267317,0.0123414634 10.9509268,0.0123414634 C10.775122,0.0123414634 10.6103415,0.0803414634 10.4868293,0.20395122 L4.96360976,5.72707317 L1.51278049,2.27614634 C1.38926829,2.15273171 1.2244878,2.08463415 1.04868293,2.08463415 C0.87297561,2.08463415 0.708292683,2.15273171 0.584682927,2.27614634 L0.191512195,2.66912195 C0.067902439,2.79292683 0,2.95780488 0,3.13341463 C0,3.30912195 0.067902439,3.47390244 0.191512195,3.5975122 L4.08770732,7.4935122 C4.09287805,7.50082927 4.09834146,7.50765854 4.10468293,7.51390244 L4.49785366,7.90053659 C4.62136585,8.02365854 4.78614634,8.08521951 4.96331707,8.08521951 L4.96536585,8.08521951 C5.14126829,8.08521951 5.30604878,8.02365854 5.42936585,7.90053659 L5.82263415,7.5104878 C5.82897561,7.5042439 5.83434146,7.49907317 5.83756098,7.49380488 L11.8079024,1.52404878 C12.064,1.26853659 12.064,0.852829268 11.808,0.59702439 Z" id="Shape"></path>
                </g>
            </g>
        </g>
    </g>
</svg>