<svg xmlns="http://www.w3.org/2000/svg" width="18" height="18" viewBox="0 0 18 18">
  <g id="Group_579" data-name="Group 579" transform="translate(-28.501 2.5)">
    <g id="Ellipse_39" data-name="Ellipse 39" transform="translate(28.501 -2.5)" fill="#fff" stroke="#4b77be" stroke-width="1">
      <circle cx="9" cy="9" r="9" stroke="none"/>
      <circle cx="9" cy="9" r="8.5" fill="none"/>
    </g>
    <g id="Group_549" data-name="Group 549" transform="translate(864.59 -1194.607) rotate(90)">
      <path id="Arrow" d="M.07,5.79a.222.222,0,0,1,0-.324L2.723,2.928.07.391a.222.222,0,0,1,0-.324.247.247,0,0,1,.339,0l2.823,2.7a.223.223,0,0,1,0,.324L.409,5.79a.244.244,0,0,1-.169.067A.244.244,0,0,1,.07,5.79Z" transform="translate(1200.404 824.119)" fill="#4b77be" stroke="#4b77be" stroke-width="0.5"/>
    </g>
  </g>
</svg>
