<svg width="306" height="16" viewBox="0 0 306 16" fill="none" xmlns="http://www.w3.org/2000/svg">
<path d="M305.207 8.70711C305.598 8.31658 305.598 7.68342 305.207 7.29289L298.843 0.928932C298.453 0.538408 297.819 0.538408 297.429 0.928932C297.038 1.31946 297.038 1.95262 297.429 2.34315L303.086 8L297.429 13.6569C297.038 14.0474 297.038 14.6805 297.429 15.0711C297.819 15.4616 298.453 15.4616 298.843 15.0711L305.207 8.70711ZM0 9H304.5V7H0V9Z" fill="#D3D3D3"/>
</svg>
