<svg id="telegram" xmlns="http://www.w3.org/2000/svg" width="30" height="30" viewBox="0 0 30 30">
  <path id="Path_348" data-name="Path 348" d="M15,0A15,15,0,1,1,0,15,15,15,0,0,1,15,0Z" fill="#4b77be"/>
  <path id="Path_329" data-name="Path 329" d="M22.483,7.823a.808.808,0,0,1,1.085.918L20.886,21.561a.845.845,0,0,1-1.326.508L15.512,19.1,13.448,21.2a.686.686,0,0,1-1.143-.274L10.816,16.2,6.825,15.025a.573.573,0,0,1-.046-1.083Zm-1.969,2.844a.19.19,0,0,0-.226-.3l-8.614,5.342a.391.391,0,0,0-.168.449l1.175,5.159a.075.075,0,0,0,.146-.014l.263-3.931a.389.389,0,0,1,.129-.25Z" fill="#fff"/>
  <path id="Path_330" data-name="Path 330" d="M20.288,10.364a.19.19,0,0,1,.226.3L13.22,17.118a.389.389,0,0,0-.129.25L12.828,21.3a.075.075,0,0,1-.146.014l-1.175-5.159a.391.391,0,0,1,.168-.449Z" fill="#9ec2e5"/>
  <path id="Path_331" data-name="Path 331" d="M12.724,21.368a.674.674,0,0,1-.419-.437L10.816,16.2,6.825,15.025a.573.573,0,0,1-.046-1.083L22.483,7.823a.805.805,0,0,1,.976.319.845.845,0,0,0-.128-.153l-10.655,8.7v.381l-.059-.042.059,2.4v1.923a.379.379,0,0,0,.047.018v0Z" fill="#fff"/>
  <g id="Group_93" data-name="Group 93">
    <path id="Path_332" data-name="Path 332" d="M23.585,8.526a.877.877,0,0,1-.017.215L20.886,21.561a.845.845,0,0,1-1.326.508L15.512,19.1l-2.835-2.028v-.381l10.655-8.7a.842.842,0,0,1,.128.153l.021.034c.006.012.013.024.019.035s.012.024.017.036.011.025.016.038.009.023.013.036a.8.8,0,0,1,.03.122C23.58,8.472,23.583,8.5,23.585,8.526Z" fill="#fff"/>
    <path id="Path_333" data-name="Path 333" d="M15.512,19.1,13.448,21.2c-.017.017-.035.034-.054.05s-.036.028-.056.041h0a.712.712,0,0,1-.119.064.506.506,0,0,1-.063.021.684.684,0,0,1-.267.024c-.023,0-.046-.006-.069-.01l-.009,0-.067-.019a.09.09,0,0,1-.021-.008l-.047-1.941V17.069Z" fill="#d1d1d1"/>
  </g>
  <g id="Group_94" data-name="Group 94">
    <path id="Path_334" data-name="Path 334" d="M13.395,21.254c-.018.015-.036.029-.056.042h0C13.358,21.282,13.376,21.269,13.395,21.254Z" fill="#dadde0"/>
    <path id="Path_335" data-name="Path 335" d="M13.339,21.3h0Z" fill="#dadde0"/>
    <path id="Path_336" data-name="Path 336" d="M13.219,21.36a.712.712,0,0,0,.119-.064A.765.765,0,0,1,13.219,21.36Z" fill="#dadde0"/>
    <path id="Path_337" data-name="Path 337" d="M12.89,21.405a.684.684,0,0,0,.267-.024.642.642,0,0,1-.195.029.564.564,0,0,1-.06,0A.025.025,0,0,1,12.89,21.405Z" fill="#dadde0"/>
  </g>
  <g id="Group_95" data-name="Group 95">
    <path id="Path_338" data-name="Path 338" d="M12.961,21.41a.564.564,0,0,1-.06,0A.564.564,0,0,0,12.961,21.41Z" fill="#fff"/>
    <path id="Path_339" data-name="Path 339" d="M12.89,21.405a.026.026,0,0,0,.012,0,.4.4,0,0,1-.061-.008A.379.379,0,0,0,12.89,21.405Z" fill="#fff"/>
  </g>
  <g id="Group_96" data-name="Group 96">
    <path id="Path_340" data-name="Path 340" d="M12.89,21.405a.4.4,0,0,1-.048-.006l-.02,0C12.843,21.4,12.866,21.4,12.89,21.405Z" fill="#dadde0"/>
    <path id="Path_341" data-name="Path 341" d="M12.745,21.374l.067.019-.027-.006-.011,0A.154.154,0,0,1,12.745,21.374Z" fill="#dadde0"/>
  </g>
  <g id="Group_97" data-name="Group 97">
    <path id="Path_342" data-name="Path 342" d="M12.784,21.387l.027.006A.13.13,0,0,1,12.784,21.387Z" fill="#fff"/>
    <path id="Path_343" data-name="Path 343" d="M12.745,21.374a.151.151,0,0,0,.028.009.265.265,0,0,1-.045-.014Z" fill="#fff"/>
  </g>
  <path id="Path_344" data-name="Path 344" d="M12.745,21.374l-.017-.005s0,0,0,0v0A.094.094,0,0,0,12.745,21.374Z" fill="#dadde0"/>
  <path id="Path_345" data-name="Path 345" d="M12.676,19.424l.047,1.941a.385.385,0,0,1-.047-.018Z" fill="#d1d1d1"/>
  <path id="Path_346" data-name="Path 346" d="M12.676,17.069v2.356l-.059-2.4Z" fill="#dadde0"/>
  <path id="Path_347" data-name="Path 347" d="M20.515,10.668,13.22,17.118a.389.389,0,0,0-.129.25L12.828,21.3a.076.076,0,0,1-.147.014l-1.174-5.159a.391.391,0,0,1,.168-.449l8.614-5.342A.19.19,0,0,1,20.515,10.668Z" fill="#adbcc9"/>
</svg>
